------------------------------------------------------------------------
r1019178 | scripty | 2009-09-03 04:11:50 +0000 (Thu, 03 Sep 2009) | 1 line

SVN_SILENT made messages (.desktop file)
------------------------------------------------------------------------
r1024450 | scripty | 2009-09-16 16:15:44 +0000 (Wed, 16 Sep 2009) | 1 line

SVN_SILENT made messages (.desktop file)
------------------------------------------------------------------------
r1029922 | scripty | 2009-10-01 02:47:33 +0000 (Thu, 01 Oct 2009) | 1 line

SVN_SILENT made messages (.desktop file)
------------------------------------------------------------------------
